Praktikum 6 Anreg
…
Data

dt <- read_xlsx("Data Anreg Praktikum.xlsx", sheet = "Data analisis")
dt # menampilkan data

## # A tibble: 34 × 8
##    Provinsi      Kepemilikan_Rumah PDRB_harga_berlaku Consumer_Price_Index   TPT
##    <chr>                     <dbl>              <dbl>                <dbl> <dbl>
##  1 Aceh                       85.2            257502.                 110.  5.64
##  2 Sumatera Uta…              73.2           1236194.                 109.  5.32
##  3 Sumatera Bar…              73.0            352189.                 109.  5.62
##  4 Riau                       78.7           1201384.                 109.  4.16
##  5 Jambi                      89.4            349663.                 108.  4.26
##  6 Sumatera Sel…              85.9            720205.                 109.  3.69
##  7 Bengkulu                   90.5            111829.                 107.  3.41
##  8 Lampung                    92.9            523847.                 109.  4.21
##  9 Kep. Bangka …              89.7            116812.                 105.  4.45
## 10 Kepulauan Ri…              75.4            381730.                 109.  6.45
## # ℹ 24 more rows
## # ℹ 3 more variables: `Urbanisasi\r\n` <dbl>, Gini_Ratio <dbl>,
## #   `Rata-rata_Lama_Sekolah` <dbl>
…
